C:\Users\yerdos\Desktop\study\java-labs\lab2\src\main\java\com\lab2\functional\DrawableElement.java
C:\Users\yerdos\Desktop\study\java-labs\lab2\src\main\java\com\lab2\functional\Transform.java
C:\Users\yerdos\Desktop\study\java-labs\lab2\src\main\java\com\lab2\functional\Main.java
C:\Users\yerdos\Desktop\study\java-labs\lab2\src\main\java\com\lab2\functional\Plasma.java
C:\Users\yerdos\Desktop\study\java-labs\lab2\src\main\java\com\lab2\functional\FractalElement.java
